{
  "Hersteller": {
    "0": "Audi",
    "1": "Audi",
    "2": "BMW",
    "3": "BMW",
    "4": "BMW",
    "5": "Fiat",
    "6": "Hyundai",
    "7": "Hyundai",
    "8": "Jaguar ",
    "9": "Kia",
    "10": "Kia",
    "11": "Mazda",
    "12": "Mercedes-Benz",
    "13": "Mini",
    "14": "Nissan",
    "15": "Nissan",
    "16": "Nissan",
    "17": "Opel",
    "18": "Peugeot ",
    "19": "Peugeot ",
    "20": "Renault",
    "21": "Renault",
    "22": "Renault",
    "23": "Skoda",
    "24": "Smart",
    "25": "Tesla ",
    "26": "Tesla ",
    "27": "Tesla ",
    "28": "VW"
  },
  "Modell": {
    "0": "e-tron 55 quattro",
    "1": "e-tron Sportback 55 quattro",
    "2": "i3 120Ah",
    "3": "i3 120Ah",
    "4": "iX3 Impressive",
    "5": "500e Cabrio Icon",
    "6": "Ioniq Elektro Style (ab 2019)",
    "7": "Kona Elektro Trend (ab 2019)",
    "8": "I-Pace EV400 S AWD",
    "9": "e-Niro Spirit",
    "10": "e-Soul Spirit",
    "11": "MX-30 e-SKYACTIV",
    "12": "EQC 400 AMG Line",
    "13": "Cooper SE",
    "14": "e-NV200 Evalia",
    "15": "Leaf Acenta",
    "16": "Leaf e+ Tekna",
    "17": "Mokka-e Ultimate",
    "18": "e-2008 GT",
    "19": "e-208 GT",
    "20": "Twingo Electric Intens",
    "21": "ZOE Intens",
    "22": "ZOE R135 Z.E. 50 Intens",
    "23": "Enyaq iV 80",
    "24": "forfour EQ passion",
    "25": "Model 3 Standard Range Plus",
    "26": "Model 3 Long Range AWD",
    "27": "Model X 100D",
    "28": "ID.3 Pro Performance 1st Max"
  },
  "Gewichtung": {
    "0": 1,
    "1": 1,
    "2": 1,
    "3": 1,
    "4": 1,
    "5": 1,
    "6": 1,
    "7": 1,
    "8": 1,
    "9": 1,
    "10": 1,
    "11": 1,
    "12": 1,
    "13": 1,
    "14": 1,
    "15": 1,
    "16": 1,
    "17": 1,
    "18": 1,
    "19": 1,
    "20": 1,
    "21": 1,
    "22": 1,
    "23": 1,
    "24": 1,
    "25": 1,
    "26": 1,
    "27": 1,
    "28": 1
  },
  "Steckertyp": {
    "0": "Typ2",
    "1": "Typ2",
    "2": "Typ2",
    "3": "Typ2",
    "4": "Typ2",
    "5": "Typ2",
    "6": "Typ2",
    "7": "Typ2",
    "8": "Typ2",
    "9": "Typ2",
    "10": "Typ2",
    "11": "Typ2",
    "12": "Typ2",
    "13": "Typ2",
    "14": "Typ1",
    "15": "Typ2",
    "16": "Typ2",
    "17": "Typ2",
    "18": "Typ2",
    "19": "Typ2",
    "20": "Typ2",
    "21": "Typ2",
    "22": "Typ2",
    "23": "Typ2",
    "24": "Typ2",
    "25": "Typ2",
    "26": "Typ2",
    "27": "Typ2",
    "28": "Typ2"
  },
  "Max. Ladeleistung [kW]": {
    "0": 11.0,
    "1": 11.0,
    "2": 11.0,
    "3": 7.4,
    "4": 11.0,
    "5": 11.0,
    "6": 7.4,
    "7": 11.0,
    "8": 7.0,
    "9": 11.0,
    "10": 11.0,
    "11": 6.6,
    "12": 7.4,
    "13": 11.0,
    "14": 6.6,
    "15": 6.6,
    "16": 6.6,
    "17": 11.0,
    "18": 11.0,
    "19": 11.0,
    "20": 22.0,
    "21": 22.0,
    "22": 22.0,
    "23": 11.0,
    "24": 22.0,
    "25": 11.0,
    "26": 11.0,
    "27": 16.5,
    "28": 11.0
  },
  "Anzahl Phasen": {
    "0": 3,
    "1": 3,
    "2": 3,
    "3": 1,
    "4": 3,
    "5": 3,
    "6": 1,
    "7": 3,
    "8": 1,
    "9": 3,
    "10": 3,
    "11": 1,
    "12": 1,
    "13": 3,
    "14": 1,
    "15": 1,
    "16": 1,
    "17": 3,
    "18": 3,
    "19": 3,
    "20": 3,
    "21": 3,
    "22": 3,
    "23": 3,
    "24": 3,
    "25": 3,
    "26": 3,
    "27": 3,
    "28": 3
  },
  "Max. Ladestrom [A]": {
    "0": 16.0,
    "1": 16.0,
    "2": 16.0,
    "3": 32.0,
    "4": 16.0,
    "5": 16.0,
    "6": 32.0,
    "7": 16.0,
    "8": 30.5,
    "9": 16.0,
    "10": 16.0,
    "11": 28.5,
    "12": 32.0,
    "13": 16.0,
    "14": 28.5,
    "15": 28.5,
    "16": 28.5,
    "17": 16.0,
    "18": 16.0,
    "19": 16.0,
    "20": 32.0,
    "21": 32.0,
    "22": 32.0,
    "23": 16.0,
    "24": 32.0,
    "25": 16.0,
    "26": 16.0,
    "27": 24.0,
    "28": 16.0
  },
  "Verbrauch [kWh\/100km] (ADAC)": {
    "0": 25.8,
    "1": 24.4,
    "2": 17.9,
    "3": 17.9,
    "4": 21.2,
    "5": 17.4,
    "6": 16.3,
    "7": 16.7,
    "8": 27.6,
    "9": 18.1,
    "10": 18.8,
    "11": 21.9,
    "12": 27.6,
    "13": 17.6,
    "14": 28.1,
    "15": 22.1,
    "16": 22.7,
    "17": 20.3,
    "18": 20.2,
    "19": 18.7,
    "20": 17.6,
    "21": 20.3,
    "22": 19.0,
    "23": 21.9,
    "24": 18.4,
    "25": 19.5,
    "26": 20.9,
    "27": 24.0,
    "28": 19.3
  },
  "Verbrauch [kWh\/100km] (WLTP)": {
    "0": 23.0,
    "1": 23.7,
    "2": 15.3,
    "3": 15.3,
    "4": 18.9,
    "5": 14.7,
    "6": 13.8,
    "7": 14.7,
    "8": 22.0,
    "9": 15.9,
    "10": 15.7,
    "11": 19.0,
    "12": 22.6,
    "13": 15.8,
    "14": 25.9,
    "15": 20.6,
    "16": 18.5,
    "17": 17.4,
    "18": 17.8,
    "19": 17.6,
    "20": 16.0,
    "21": 17.2,
    "22": 17.7,
    "23": 16.7,
    "24": 15.9,
    "25": 14.3,
    "26": 16.0,
    "27": 20.8,
    "28": 16.1
  },
  "Batterie [kWh] (Hersteller)": {
    "0": 95.0,
    "1": 95.0,
    "2": 42.2,
    "3": 42.2,
    "4": 80.0,
    "5": 42.0,
    "6": 38.3,
    "7": 67.0,
    "8": 90.2,
    "9": 67.0,
    "10": 67.0,
    "11": 35.5,
    "12": 85.0,
    "13": 32.6,
    "14": 40.0,
    "15": 40.0,
    "16": 62.0,
    "17": 50.0,
    "18": 50.0,
    "19": 50.0,
    "20": 22.0,
    "21": 44.1,
    "22": 55.0,
    "23": 82.0,
    "24": 17.6,
    "25": 53.0,
    "26": 75.0,
    "27": 100.0,
    "28": 62.0
  },
  "Energie Vollladung [kWh] (ADAC)": {
    "0": 94.3,
    "1": 96.0,
    "2": 48.8,
    "3": 48.8,
    "4": 85.3,
    "5": 42.9,
    "6": 44.1,
    "7": 72.8,
    "8": 100.8,
    "9": 72.3,
    "10": 73.9,
    "11": 37.5,
    "12": 93.0,
    "13": 37.6,
    "14": 46.9,
    "15": 44.5,
    "16": 68.4,
    "17": 52.4,
    "18": 53.1,
    "19": 53.1,
    "20": 27.2,
    "21": 49.5,
    "22": 64.3,
    "23": 86.9,
    "24": 18.9,
    "25": 60.0,
    "26": 89.5,
    "27": 108.3,
    "28": 64.8
  },
  "Reichweite [km] (ADAC)": {
    "0": 365,
    "1": 390,
    "2": 272,
    "3": 272,
    "4": 400,
    "5": 245,
    "6": 270,
    "7": 435,
    "8": 366,
    "9": 398,
    "10": 390,
    "11": 170,
    "12": 335,
    "13": 210,
    "14": 167,
    "15": 201,
    "16": 300,
    "17": 255,
    "18": 260,
    "19": 280,
    "20": 150,
    "21": 243,
    "22": 335,
    "23": 395,
    "24": 100,
    "25": 305,
    "26": 429,
    "27": 451,
    "28": 335
  }
}