{
  "bender1": {
    "RfidKey": "236",
    "Distance": "",
    "AutoVerbrauch": "",
    "DriverType": "BENDER_SLAVE",
    "DriverParams": "",
    "ParentDeviceId": "bender_master1",
    "Name": "",
    "Description": "",
    "MaxCurrentSinglePhase": null,
    "MaxCurrentPhase1": 32,
    "MaxCurrentPhase2": 32,
    "MaxCurrentPhase3": 32,
    "MinCurrentSinglePhase": null,
    "MinCurrentPhase1": 3,
    "MinCurrentPhase2": 3,
    "MinCurrentPhase3": 3,
    "AvailableCurrentSteps": null,
    "GreenEnergy": false,
    "BatteryCapacity": null,
    "BatteryCapacityLowerLimit": null,
    "IsMainMeter": false,
    "IgnoreState": false,
    "L1": 1,
    "L2": 2,
    "L3": 3,
    "IsControllable": true,
    "DistributeCurrent": false
  },
  "bender2": {
    "RfidKey": "482",
    "Distance": "",
    "AutoVerbrauch": "",
    "DriverType": "BENDER_SLAVE",
    "DriverParams": "",
    "ParentDeviceId": "bender_master1",
    "Name": "",
    "Description": "",
    "MaxCurrentSinglePhase": null,
    "MaxCurrentPhase1": 32,
    "MaxCurrentPhase2": 32,
    "MaxCurrentPhase3": 32,
    "MinCurrentSinglePhase": null,
    "MinCurrentPhase1": 3,
    "MinCurrentPhase2": 3,
    "MinCurrentPhase3": 3,
    "AvailableCurrentSteps": null,
    "GreenEnergy": false,
    "BatteryCapacity": null,
    "BatteryCapacityLowerLimit": null,
    "IsMainMeter": false,
    "IgnoreState": false,
    "L1": 1,
    "L2": 2,
    "L3": 3,
    "IsControllable": true,
    "DistributeCurrent": false
  },
  "bender4": {
    "RfidKey": "536",
    "Distance": "",
    "AutoVerbrauch": "",
    "DriverType": "BENDER_SLAVE",
    "DriverParams": "",
    "ParentDeviceId": "bender_master2",
    "Name": "",
    "Description": "",
    "MaxCurrentSinglePhase": null,
    "MaxCurrentPhase1": 32,
    "MaxCurrentPhase2": 32,
    "MaxCurrentPhase3": 32,
    "MinCurrentSinglePhase": null,
    "MinCurrentPhase1": 3,
    "MinCurrentPhase2": 3,
    "MinCurrentPhase3": 3,
    "AvailableCurrentSteps": null,
    "GreenEnergy": false,
    "BatteryCapacity": null,
    "BatteryCapacityLowerLimit": null,
    "IsMainMeter": false,
    "IgnoreState": false,
    "L1": 1,
    "L2": 2,
    "L3": 3,
    "IsControllable": true,
    "DistributeCurrent": false
  }
}